{
	"grupa": "ball_ENG",
	"rodzaj": "wyjscia",
	"rozmowy": [
		{
			"id": "400119",
			"opis": "Info_o_klubie",
			"temat": "Info_o_klubie",
			"wyjscia": [
				{"out":"Oto informacje, ktore powinny cię zadowolić.</br><b>CHELSEA LONDYN</b><img src='images/p_nozna/premier_league/chelsea.jpg'></br><b>Lokalizacja: </b>Londyn</br><b>Data założenia: </b>10 marca 1905</br><b>Trener: </b>Guus Hiddink</br><b>Stadion: </b> Stamford Bridge, Londyn (pojemność 41 798)</br><b>Liga: </b>Premier League</br><b>Strona internetowa: </b><a target='_blank' href='https://www.chelseafc.com/'>www.chelseafc.com</a></br><b>Dowiedz się więcej: </b><a target='_blank' href='http://www.transfermarkt.pl/fc-chelsea/startseite/verein/631'>www.transfermarkt.pl</a></br><b>Tabela i forma: </b><a target='_blank' href='http://www.flashscore.pl/tabela/OhnzLqf7/faBBhyuM/#table;overall'>Tabela Premier League</a>"}
			] 
		},
		{
			"id": "400120",
			"opis": "Info_o_klubie",
			"temat": "Info_o_klubie",
			"wyjscia": [
				{"out":"Oto informacje, ktore powinny cię zadowolić.</br><b>MANCHESTER CITY</b><img src='images/p_nozna/premier_league/city.jpg'></br><b>Lokalizacja: </b>Manchester</br><b>Data założenia: </b>1880</br><b>Trener: </b>Manuel Pellegrini</br><b>Stadion: </b> Etihad Stadium, Manchester (pojemność 55 097)</br><b>Liga: </b>Premier League</br><b>Strona internetowa: </b><a target='_blank' href='https://www.mcfc.co.uk/'>www.mcfc.co.uk/</a></br><b>Dowiedz się więcej: </b><a target='_blank' href='http://www.transfermarkt.pl/manchester-city/startseite/verein/281'>www.transfermarkt.pl</a></br><b>Tabela i forma: </b><a target='_blank' href='http://www.flashscore.pl/tabela/OhnzLqf7/faBBhyuM/#table;overall'>Tabela Premier League</a>"}
			] 
		},
		{
			"id": "400121",
			"opis": "Info_o_klubie",
			"temat": "Info_o_klubie",
			"wyjscia": [
				{"out":"Oto informacje, ktore powinny cię zadowolić.</br><b>ARSENAL LONDYN</b><img src='images/p_nozna/premier_league/arsenal.jpg'></br><b>Lokalizacja: </b>Londyn</br><b>Data założenia: </b>1886</br><b>Trener: </b>Arsène Wenger</br><b>Stadion: </b> Emirates Stadium, Londyn (pojemność 60 272)</br><b>Liga: </b>Premier League</br><b>Strona internetowa: </b><a target='_blank' href='http://www.arsenal.com/home'>http://www.arsenal.com</a></br><b>Dowiedz się więcej: </b><a target='_blank' href='http://www.transfermarkt.pl/fc-arsenal/startseite/verein/11'>www.transfermarkt.pl</a></br><b>Tabela i forma: </b><a target='_blank' href='http://www.flashscore.pl/tabela/OhnzLqf7/faBBhyuM/#table;overall'>Tabela Premier League</a>"}
			] 
		},
		{
			"id": "400122",
			"opis": "Info_o_klubie",
			"temat": "Info_o_klubie",
			"wyjscia": [
				{"out":"Oto informacje, ktore powinny cię zadowolić.</br><b>MANCHESTER UNITED</b><img src='images/p_nozna/premier_league/man_utd.jpg'></br><b>Lokalizacja: </b>Manchester</br><b>Data założenia: </b>1878</br><b>Trener: </b>Louis van Gaal</br><b>Stadion: </b> Old Trafford, Manchester (pojemność 75 635)</br><b>Liga: </b>Premier League</br><b>Strona internetowa: </b><a target='_blank' href='http://www.manutd.com/'>www.manutd.com</a></br><b>Dowiedz się więcej: </b><a target='_blank' href='http://www.transfermarkt.pl/manchester-united/startseite/verein/985'>www.transfermarkt.pl</a></br><b>Tabela i forma: </b><a target='_blank' href='http://www.flashscore.pl/tabela/OhnzLqf7/faBBhyuM/#table;overall'>Tabela Premier League</a>"}
			] 
		},
		{
			"id": "400123",
			"opis": "Info_o_klubie",
			"temat": "Info_o_klubie",
			"wyjscia": [
				{"out":"Oto informacje, ktore powinny cię zadowolić.</br><b>TOTTENHAM HOTSPUR</b><img src='images/p_nozna/premier_league/spurs.jpg'></br><b>Lokalizacja: </b>Londyn</br><b>Data założenia: </b>1882</br><b>Trener: </b>Mauricio Pochettino</br><b>Stadion: </b> White Hart Lane (pojemność 36 284)</br><b>Liga: </b>Premier League</br><b>Strona internetowa: </b><a target='_blank' href='http://www.tottenhamhotspur.com/'>www.tottenhamhotspur.com</a></br><b>Dowiedz się więcej: </b><a target='_blank' href='http://www.transfermarkt.pl/tottenham-hotspur/startseite/verein/148'>www.transfermarkt.pl</a></br><b>Tabela i forma: </b><a target='_blank' href='http://www.flashscore.pl/tabela/OhnzLqf7/faBBhyuM/#table;overall'>Tabela Premier League</a>"}
			] 
		},
		{
			"id": "400124",
			"opis": "Info_o_klubie",
			"temat": "Info_o_klubie",
			"wyjscia": [
				{"out":"Oto informacje, ktore powinny cię zadowolić.</br><b>LIVERPOOL</b><img src='images/p_nozna/premier_league/liverpool.jpg'></br><b>Lokalizacja: </b>Liverpool</br><b>Data założenia: </b>1892</br><b>Trener: </b>Jürgen Klopp</br><b>Stadion: </b> Anfield (pojemność 45 276)</br><b>Liga: </b>Premier League</br><b>Strona internetowa: </b><a target='_blank' href='http://www.liverpoolfc.com/welcome-to-liverpool-fc'>liverpoolfc.com/</a></br><b>Dowiedz się więcej: </b><a target='_blank' href='http://www.transfermarkt.pl/fc-liverpool/startseite/verein/31'>www.transfermarkt.pl</a></br><b>Tabela i forma: </b><a target='_blank' href='http://www.flashscore.pl/tabela/OhnzLqf7/faBBhyuM/#table;overall'>Tabela Premier League</a>"}
			] 
		},
		{
			"id": "400125",
			"opis": "Info_o_klubie",
			"temat": "Info_o_klubie",
			"wyjscia": [
				{"out":"Oto informacje, ktore powinny cię zadowolić.</br><b>SOUTHAMPTON</b><img src='images/p_nozna/premier_league/southampton.jpg'></br><b>Lokalizacja: </b>Southampton</br><b>Data założenia: </b>1885</br><b>Trener: </b>Ronald Koeman</br><b>Stadion: </b> St. Mary's Stadium (pojemność 32 505)</br><b>Liga: </b>Premier League</br><b>Strona internetowa: </b><a target='_blank' href='http://www.saintsfc.co.uk/'>www.saintsfc.co.uk</a></br><b>Dowiedz się więcej: </b><a target='_blank' href='http://www.transfermarkt.pl/fc-southampton/startseite/verein/180'>www.transfermarkt.pl</a></br><b>Tabela i forma: </b><a target='_blank' href='http://www.flashscore.pl/tabela/OhnzLqf7/faBBhyuM/#table;overall'>Tabela Premier League</a>"}
			] 
		},
		{
			"id": "400126",
			"opis": "Info_o_klubie",
			"temat": "Info_o_klubie",
			"wyjscia": [
				{"out":"Oto informacje, ktore powinny cię zadowolić.</br><b>SWANSEA CITY</b><img src='images/p_nozna/premier_league/swansea.jpg'></br><b>Lokalizacja: </b>Swansea</br><b>Data założenia: </b>1912</br><b>Trener: </b>Alan Curtis</br><b>Stadion: </b> Liberty Stadium, Swansea (pojemność 20 827)</br><b>Liga: </b>Premier League</br><b>Strona internetowa: </b><a target='_blank' href='http://www.swanseacity.net/'>www.swanseacity.net</a></br><b>Dowiedz się więcej: </b><a target='_blank' href='http://www.transfermarkt.pl/swansea-city/startseite/verein/2288'>www.transfermarkt.pl</a></br><b>Tabela i forma: </b><a target='_blank' href='http://www.flashscore.pl/tabela/OhnzLqf7/faBBhyuM/#table;overall'>Tabela Premier League</a>"}
			] 
		},
		{
			"id": "400127",
			"opis": "Info_o_klubie",
			"temat": "Info_o_klubie",
			"wyjscia": [
				{"out":"Oto informacje, ktore powinny cię zadowolić.</br><b>STOKE CITY</b><img src='images/p_nozna/premier_league/stoke.jpg'></br><b>Lokalizacja: </b>Stoke-on-Trent</br><b>Data założenia: </b>1863</br><b>Trener: </b>Mark Hughes</br><b>Stadion: </b> Britannia Stadium (pojemność 27 740)</br><b>Liga: </b>Premier League</br><b>Strona internetowa: </b><a target='_blank' href='http://www.stokecityfc.com/'>www.stokecityfc.com</a></br><b>Dowiedz się więcej: </b><a target='_blank' href='http://www.transfermarkt.pl/stoke-city/startseite/verein/512'>www.transfermarkt.pl</a></br><b>Tabela i forma: </b><a target='_blank' href='http://www.flashscore.pl/tabela/OhnzLqf7/faBBhyuM/#table;overall'>Tabela Premier League</a>"}
			] 
		},
		{
			"id": "400128",
			"opis": "Info_o_klubie",
			"temat": "Info_o_klubie",
			"wyjscia": [
				{"out":"Oto informacje, ktore powinny cię zadowolić.</br><b>CRYSTAL PALACE</b><img src='images/p_nozna/premier_league/cr_palace.jpg'></br><b>Lokalizacja: </b>Londyn</br><b>Data założenia: </b>1905</br><b>Trener: </b>Alan Pardew</br><b>Stadion: </b> Selhurst Park, Londyn (pojemność 25 747)</br><b>Liga: </b>Premier League</br><b>Strona internetowa: </b><a target='_blank' href='http://www.cpfc.co.uk/'>www.cpfc.co.uk</a></br><b>Dowiedz się więcej: </b><a target='_blank' href='http://www.transfermarkt.pl/crystal-palace/startseite/verein/873'>www.transfermarkt.pl</a></br><b>Tabela i forma: </b><a target='_blank' href='http://www.flashscore.pl/tabela/OhnzLqf7/faBBhyuM/#table;overall'>Tabela Premier League</a>"}
			] 
		},
		{
			"id": "400129",
			"opis": "Info_o_klubie",
			"temat": "Info_o_klubie",
			"wyjscia": [
				{"out":"Oto informacje, ktore powinny cię zadowolić.</br><b>EVERTON FC</b><img src='images/p_nozna/premier_league/everton.jpg'></br><b>Lokalizacja: </b>Liverpool</br><b>Data założenia: </b>1878</br><b>Trener: </b>Roberto Martínez</br><b>Stadion: </b> Goodison Park, Liverpool (pojemność 39 571)</br><b>Liga: </b>Premier League</br><b>Strona internetowa: </b><a target='_blank' href='http://www.evertonfc.com/home'>www.evertonfc.com/home</a></br><b>Dowiedz się więcej: </b><a target='_blank' href='http://www.transfermarkt.pl/fc-everton/startseite/verein/29'>www.transfermarkt.pl</a></br><b>Tabela i forma: </b><a target='_blank' href='http://www.flashscore.pl/tabela/OhnzLqf7/faBBhyuM/#table;overall'>Tabela Premier League</a>"}
			] 
		},
		{
			"id": "400130",
			"opis": "Info_o_klubie",
			"temat": "Info_o_klubie",
			"wyjscia": [
				{"out":"Oto informacje, ktore powinny cię zadowolić.</br><b>WEST HAM UNITED </b><img src='images/p_nozna/premier_league/west_ham.jpg'></br><b>Lokalizacja: </b>Londyn</br><b>Data założenia: </b>1895</br><b>Trener: </b>Slaven Bilić</br><b>Stadion: </b> Upton Park, Londyn (pojemność 35 345)</br><b>Liga: </b>Premier League</br><b>Strona internetowa: </b><a target='_blank' href='http://www.whufc.com/'>www.whufc.com</a></br><b>Dowiedz się więcej: </b><a target='_blank' href='http://www.transfermarkt.pl/west-ham-united/startseite/verein/379'>www.transfermarkt.pl</a></br><b>Tabela i forma: </b><a target='_blank' href='http://www.flashscore.pl/tabela/OhnzLqf7/faBBhyuM/#table;overall'>Tabela Premier League</a>"}
			] 
		},
		{
			"id": "400131",
			"opis": "Info_o_klubie",
			"temat": "Info_o_klubie",
			"wyjscia": [
				{"out":"Oto informacje, ktore powinny cię zadowolić.</br><b>WEST BROMWICH ALBION FC</b><img src='images/p_nozna/premier_league/west_brom.jpg'></br><b>Lokalizacja: </b>West Bromwich</br><b>Data założenia: </b>1878</br><b>Trener: </b>Tony Pulis</br><b>Stadion: </b> The Hawthorns, West Bromwich (pojemność 26 445)</br><b>Liga: </b>Premier League</br><b>Strona internetowa: </b><a target='_blank' href='http://www.wba.co.uk/'>www.wba.co.uk</a></br><b>Dowiedz się więcej: </b><a target='_blank' href='http://www.transfermarkt.pl/west-bromwich-albion/startseite/verein/984'>www.transfermarkt.pl</a></br><b>Tabela i forma: </b><a target='_blank' href='http://www.flashscore.pl/tabela/OhnzLqf7/faBBhyuM/#table;overall'>Tabela Premier League</a>"}
			] 
		},
		{
			"id": "400132",
			"opis": "Info_o_klubie",
			"temat": "Info_o_klubie",
			"wyjscia": [
				{"out":"Oto informacje, ktore powinny cię zadowolić.</br><b>LEICESTER CITY</b><img src='images/p_nozna/premier_league/leicester.jpg'></br><b>Lokalizacja: </b>Leicester</br><b>Data założenia: </b>1884</br><b>Trener: </b>Claudio Ranieri</br><b>Stadion: </b> King Power Stadium (pojemność 32 312)</br><b>Liga: </b>Premier League</br><b>Strona internetowa: </b><a target='_blank' href='http://www.lcfc.com/'>www.lcfc.com</a></br><b>Dowiedz się więcej: </b><a target='_blank' href='http://www.transfermarkt.pl/leicester-city/startseite/verein/1003'>www.transfermarkt.pl</a></br><b>Tabela i forma: </b><a target='_blank' href='http://www.flashscore.pl/tabela/OhnzLqf7/faBBhyuM/#table;overall'>Tabela Premier League</a>"}
			] 
		},
		{
			"id": "400133",
			"opis": "Info_o_klubie",
			"temat": "Info_o_klubie",
			"wyjscia": [
				{"out":"Oto informacje, ktore powinny cię zadowolić.</br><b>NEWCASTLE UNITED</b><img src='images/p_nozna/premier_league/newcastle.jpg'></br><b>Lokalizacja: </b>Newcastle </br><b>Data założenia: </b>1892</br><b>Trener: </b>Steve McClaren</br><b>Stadion: </b> St. James’ Park, Newcastle (pojemność 52 405)</br><b>Liga: </b>Premier League</br><b>Strona internetowa: </b><a target='_blank' href='http://www.nufc.co.uk/page/Welcome/'>www.nufc.co.uk</a></br><b>Dowiedz się więcej: </b><a target='_blank' href='http://www.transfermarkt.pl/newcastle-united/startseite/verein/762'>www.transfermarkt.pl</a></br><b>Tabela i forma: </b><a target='_blank' href='http://www.flashscore.pl/tabela/OhnzLqf7/faBBhyuM/#table;overall'>Tabela Premier League</a>"}
			] 
		},
		{
			"id": "400134",
			"opis": "Info_o_klubie",
			"temat": "Info_o_klubie",
			"wyjscia": [
				{"out":"Oto informacje, ktore powinny cię zadowolić.</br><b>AFC SUNDERLAND</b><img src='images/p_nozna/premier_league/sunderland.jpg'></br><b>Lokalizacja: </b>Sunderland</br><b>Data założenia: </b>1879</br><b>Trener: </b>Sam Allardyce</br><b>Stadion: </b> Stadium of Light (pojemność 48 708)</br><b>Liga: </b>Premier League</br><b>Strona internetowa: </b><a target='_blank' href='http://www.safc.com/'>www.safc.com/</a></br><b>Dowiedz się więcej: </b><a target='_blank' href='http://www.transfermarkt.pl/afc-sunderland/startseite/verein/289'>www.transfermarkt.pl</a></br><b>Tabela i forma: </b><a target='_blank' href='http://www.flashscore.pl/tabela/OhnzLqf7/faBBhyuM/#table;overall'>Tabela Premier League</a>"}
			] 
		},
		{
			"id": "400135",
			"opis": "Info_o_klubie",
			"temat": "Info_o_klubie",
			"wyjscia": [
				{"out":"Oto informacje, ktore powinny cię zadowolić.</br><b>ASTON VILLA</b><img src='images/p_nozna/premier_league/avilla.jpg'></br><b>Lokalizacja: </b>Birmingham </br><b>Data założenia: </b>1874</br><b>Trener: </b>Rémi Garde</br><b>Stadion: </b> Villa Park (pojemność 42 682)</br><b>Liga: </b>Premier League</br><b>Strona internetowa: </b><a target='_blank' href='http://www.avfc.co.uk/'>www.avfc.co.uk</a></br><b>Dowiedz się więcej: </b><a target='_blank' href='http://www.transfermarkt.pl/aston-villa/startseite/verein/405'>www.transfermarkt.pl</a></br><b>Tabela i forma: </b><a target='_blank' href='http://www.flashscore.pl/tabela/OhnzLqf7/faBBhyuM/#table;overall'>Tabela Premier League</a>"}
			] 
		},
		{
			"id": "400136",
			"opis": "Info_o_klubie",
			"temat": "Info_o_klubie",
			"wyjscia": [
				{"out":"Oto informacje, ktore powinny cię zadowolić.</br><b>AFC BOURNEMOUTH</b><img src='images/p_nozna/premier_league/bournemouth.jpg'></br><b>Lokalizacja: </b>Bournemouth</br><b>Data założenia: </b>1899</br><b>Trener: </b>Eddie Howe</br><b>Stadion: </b> Vitality Stadium (pojemność 11 700)</br><b>Liga: </b>Premier League</br><b>Strona internetowa: </b><a target='_blank' href='http://www.afcb.co.uk/'>www.afcb.co.uk</a></br><b>Dowiedz się więcej: </b><a target='_blank' href='http://www.transfermarkt.pl/afc-bournemouth/startseite/verein/989'>www.transfermarkt.pl</a></br><b>Tabela i forma: </b><a target='_blank' href='http://www.flashscore.pl/tabela/OhnzLqf7/faBBhyuM/#table;overall'>Tabela Premier League</a>"}
			] 
		},
		{
			"id": "400137",
			"opis": "Info_o_klubie",
			"temat": "Info_o_klubie",
			"wyjscia": [
				{"out":"Oto informacje, ktore powinny cię zadowolić.</br><b>WATFORD FC</b><img src='images/p_nozna/premier_league/watford.jpg'></br><b>Lokalizacja: </b>Watford</br><b>Data założenia: </b>1881</br><b>Trener: </b>Quique Flores</br><b>Stadion: </b> Vicarage Road, Watford (pojemność 20 877)</br><b>Liga: </b>Premier League</br><b>Strona internetowa: </b><a target='_blank' href='http://www.watfordfc.com/'>www.watfordfc.com/</a></br><b>Dowiedz się więcej: </b><a target='_blank' href='http://www.transfermarkt.pl/fc-watford/startseite/verein/1010'>www.transfermarkt.pl</a></br><b>Tabela i forma: </b><a target='_blank' href='http://www.flashscore.pl/tabela/OhnzLqf7/faBBhyuM/#table;overall'>Tabela Premier League</a>"}
			] 
		},
		{
			"id": "400138",
			"opis": "Info_o_klubie",
			"temat": "Info_o_klubie",
			"wyjscia": [
				{"out":"Oto informacje, ktore powinny cię zadowolić.</br><b>NORWICH CITY </b><img src='images/p_nozna/premier_league/norwich.jpg'></br><b>Lokalizacja: </b>Norwich</br><b>Data założenia: </b>1902</br><b>Trener: </b>Alex Neil</br><b>Stadion: </b> Carrow Road, Norwich (pojemność 27 033)</br><b>Liga: </b>Premier League</br><b>Strona internetowa: </b><a target='_blank' href='http://www.canaries.co.uk/'>www.canaries.co.uk/</a></br><b>Dowiedz się więcej: </b><a target='_blank' href='http://www.transfermarkt.pl/norwich-city/startseite/verein/1123'>www.transfermarkt.pl</a></br><b>Tabela i forma: </b><a target='_blank' href='http://www.flashscore.pl/tabela/OhnzLqf7/faBBhyuM/#table;overall'>Tabela Premier League</a>"}
			] 
		},
		{
			"id": "400139",
			"opis": "Info_o_klubie",
			"temat": "Info_o_klubie",
			"wyjscia": [
				{"out":"Oto informacje, ktore powinny cię zadowolić.</br><b>HULL CITY</b><img src='images/p_nozna/premier_league/hull.jpg'></br><b>Lokalizacja: </b>Hull</br><b>Data założenia: </b>1904</br><b>Trener: </b>Steve Bruce</br><b>Stadion: </b> KC Stadium, Hull (pojemność 25 400)</br><b>Liga: </b>Championship - 2. liga (ANG)</br><b>Strona internetowa: </b><a target='_blank' href='http://www.hullcitytigers.com/'>www.hullcitytigers.com</a></br><b>Dowiedz się więcej: </b><a target='_blank' href='http://www.transfermarkt.pl/hull-city/startseite/verein/3008'>www.transfermarkt.pl</a></br><b>Tabela i forma: </b><a target='_blank' href='http://www.flashscore.pl/tabela/2qovK39D/CKwOiefS/#table;overall'>Tabela Championship</a>"}
			] 
		},
		{
			"id": "400140",
			"opis": "Info_o_klubie",
			"temat": "Info_o_klubie",
			"wyjscia": [
				{"out":"Oto informacje, ktore powinny cię zadowolić.</br><b>BURNLEY FC</b><img src='images/p_nozna/premier_league/burnley.jpg'></br><b>Lokalizacja: </b>Burnley</br><b>Data założenia: </b>1882</br><b>Trener: </b>Sean Dyche</br><b>Stadion: </b> Turf Moor, Burnley (pojemność 21 401)</br><b>Liga: </b>Championship - 2. liga (ANG)</br><b>Strona internetowa: </b><a target='_blank' href='http://www.burnleyfootballclub.com/'>www.burnleyfootballclub.com</a></br><b>Dowiedz się więcej: </b><a target='_blank' href='http://www.transfermarkt.pl/fc-burnley/startseite/verein/1132'>www.transfermarkt.pl</a></br><b>Tabela i forma: </b><a target='_blank' href='http://www.flashscore.pl/tabela/2qovK39D/CKwOiefS/#table;overall'>Tabela Championship</a>"}
			] 
		},
		{
			"id": "400141",
			"opis": "Info_o_klubie",
			"temat": "Info_o_klubie",
			"wyjscia": [
				{"out":"Oto informacje, ktore powinny cię zadowolić.</br><b>QUEENS PARK RANGERS F.C</b><img src='images/p_nozna/premier_league/qpr.jpg'></br><b>Lokalizacja: </b>Londyn</br><b>Data założenia: </b>1882</br><b>Trener: </b>Chris Ramsey</br><b>Stadion: </b> Loftus Road, Londyn (pojemność 18 000)</br><b>Liga: </b>Championship - 2. liga (ANG)</br><b>Strona internetowa: </b><a target='_blank' href='http://www.qpr.co.uk/'>www.qpr.co.uk</a></br><b>Dowiedz się więcej: </b><a target='_blank' href='http://www.transfermarkt.pl/queens-park-rangers/startseite/verein/1039'>www.transfermarkt.pl</a></br><b>Tabela i forma: </b><a target='_blank' href='http://www.flashscore.pl/tabela/2qovK39D/CKwOiefS/#table;overall'>Tabela Championship</a>"}
			] 
		}
	]
}