{
    "grupa": "pnozna",
    "rodzaj": "wyjscia",
    "rozmowy": [
        {
            "id": "400001",
            "opis": "Lubienie_pilki",
            "temat": "Lubienie_pilki",
            "wyjscia": [
                {"out":"Oczywiście. Bardzo lubię piłkę, dlatego oglądam ją bardzo często."},
                {"out":"Oczywiście. Bardzo lubię piłkę, dlatego oglądam ją bardzo często. a ty?"}
            ] 
        },
        {
            "id": "400002",
            "opis": "Ulubiona_liga",
            "temat": "Ulubiona_liga",
            "wyjscia": [
                {"out":"No to fajnie. Mamy o czym porozmawiać <img src='images/smile.jpg'> Ja lubię oglądać ligę angielską. Jest bardzo emocjonująca. A ty?"},
                {"out":"Super! A masz jakąś ulubioną ligę? Ja lubię oglądać Premier League <img src='images/smile.jpg'>"}
            ] 
        },
		{
            "id": "400003",
            "opis": "Lubienie_pilki",
            "temat": "Lubienie_pilki",
            "wyjscia": [
                {"out":"No jeśli nie lubisz piłki nożnej to porozmawiajmy o czymś innym, np o muzyce."}
            ] 
        },
		{
            "id": "400004",
            "opis": "Lubienie_pilki",
            "temat": "Lubienie_pilki",
            "wyjscia": [
                {"out":"OK. Jak nalegasz to pogadajmy o piłce. Może chcesz coś wiedzieć :)"}
            ] 
        },
        {
            "id": "400005",
            "opis": "Lubienie_pilki",
            "temat": "Lubienie_pilki",
            "wyjscia": [
                {"out":"Jasne, o piłce zawsze."},
                {"out":"Pewnie, to mój ulubiony temat."},
                {"out":"No jasne :) Uwielbiam rozmawiać o piłce nożnej."},
                {"out":"Tak, jasne <img src='images/smile.jpg'> Oglądanie piłki nożnej to moje hobby."},
                {"out":"Jasne, że tak. Mam nadzieje, że troche znasz temat <img src='images/smile.jpg'>"}
            ] 
        },
        {
            "id": "400006",
            "opis": "Ulubiona_liga",
            "temat": "Ulubiona_liga",
            "wyjscia": [
                {"out":"Rozumiem. W takim razie co oglądasz?"}
            ] 
        },
		{
            "id": "400007",
            "opis": "Ulubiony_zespol",
            "temat": "Ulubiony_zespol",
            "wyjscia": [
                {"out":"Fajnie :) A masz jakiś ulubiony zespół?"}
            ] 
        },
        {
            "id": "400008",
            "opis": "Ulubiona_liga",
            "temat": "Ulubiona_liga",
            "wyjscia": [
                {"out":"No oczywiście liga angielska. Jest najlepsza do oglądania, ze względu na nieprzewidywalność, waleczość i wysoki poziom rozgrywek. Chociaż ostatnio kluby z Premier League nie mają najlepszych wyników w LM. Nie wiem czy wiesz, że w lidze angielskiej w sezonie 2014/2015 wyprzedano 95.8% biletów. To najlepszy wynik w Europie."}
            ] 
        },
        {
            "id": "400009",
            "opis": "Ulubiona_liga",
            "temat": "Ulubiona_liga",
            "wyjscia": [
                {"out":"No Ekstraklasa jest ciekawa, zwłaszcza po reformie. ESA 37 sprawia, że rozgrywki są ciekawe od początku do końca."}
            ] 
        },
        {
            "id": "400010",
            "opis": "Ulubiona_liga",
            "temat": "Ulubiona_liga",
            "wyjscia": [
                {"out":"No Premier League to moim zdaniem najciekawsza liga. Masz dobry gust :)"},
				{"out":"Fajnie. Liga angielska jest ciekawa i występuje w niej dużo gwiazd."},
				{"out":"Premier League jest solidną ligą, w której występuje kilka dobrych drużyn."},
				{"out":"Liga angielska jest najlepszą ligą w Europie, a kilka klubów gra naprawde atrakcyjny football."},
				{"out":"Premier League jest jedną z najlepszych lig w Europie."},
				{"out":"Extra, Premier League jest jedną z najciekawszych lig. Oglądam ją bardzo często."}
            ] 
        },
        {
            "id": "400011",
            "opis": "Ulubiona_liga",
            "temat": "Ulubiona_liga",
            "wyjscia": [
                {"out":"No Bundesliga jest jedną z najepszych lig na świecie."},
				{"out":"Fajnie. Liga niemiecka jest ciekawa i występuje w niej dużo gwiazd."},
				{"out":"Bundesliga jest solidną ligą, w której występuje kilka dobrych drużyn."},
				{"out":"Liga niemiecka jest najlepszą ligą w Europie, a kilka klubów gra naprawde atrakcyjny football."},
				{"out":"Bundesliga jest jedną z najlepszych lig w Europie."},
				{"out":"Extra, Bundesliga jest jedną z najciekawszych lig. Od czasu do czasu zdarza mi się obejrzeć jakiś mecz z ligi niemieckiej."}
            ] 
        },
        {
            "id": "400012",
            "opis": "Ulubiona_liga",
            "temat": "Ulubiona_liga",
            "wyjscia": [
                {"out":"Primera Division jest najlepszą ligą w Europie i pewnie też na świecie więc wogle ci się nie dziwie."},
				{"out":"Fajnie. Liga hiszpańska jest ciekawa i występuje w niej dużo gwiazd."},
				{"out":"Primera Division jest solidną ligą, w której występuje kilka dobrych drużyn."},
				{"out":"Liga hiszpańska jest najlepszą ligą w Europie, a kilka klubów gra naprawde atrakcyjny football."},
				{"out":"Primera Division jest najlepszą ligą w Europie."},
				{"out":"Extra, Primera Division jest jedną z najciekawszych lig. Od czasu do czasu zdarza mi się obejrzeć jakiś mecz z ligi hiszpańskiej."}
            ] 
        },
        {
            "id": "400013",
            "opis": "Ulubiona_liga",
            "temat": "Ulubiona_liga",
            "wyjscia": [
                {"out":"No Serie A należy do ścisłej czołówki lig europejskich i jest bardzo ciekawa do oglądania. Też lubię ją oglądać."},
				{"out":"Fajnie. Liga włoska jest ciekawa i występuje w niej dużo gwiazd."},
				{"out":"Serie A jest solidną ligą, w której występuje kilka dobrych drużyn."},
				{"out":"Liga włoska jest jedną z najlepszych w Europie, a kilka klubów gra naprawde atrakcyjny football."},
				{"out":"Serie A jest jedną z najlepszych lig w Europie."},
				{"out":"Extra, Serie A jest jedną z najciekawszych lig. Od czasu do czasu zdarza mi się obejrzeć jakiś mecz z ligi włoskiej."}
            ] 
        },
        {
            "id": "400014",
            "opis": "Ulubiona_liga",
            "temat": "Ulubiona_liga",
            "wyjscia": [
                {"out":"Fajnie. Liga francuska jest ciekawa i występuje w niej dużo gwiazd."},
				{"out":"Ligue 1 jest solidną ligą, w której występuje kilka dobrych drużyn."},
				{"out":"Liga francuska jest jedną z najlepszych w Europie, a kilka klubów gra naprawde atrakcyjny football."},
				{"out":"Ligue 1 jest jedną z najlepszych lig w Europie, szkoda że pada w niej mało bramek."},
				{"out":"Extra, Ligue 1 jest jedną z ciekawszych lig. Od czasu do czasu zdarza mi się obejrzeć jakiś mecz z ligi francuskiej."}
			] 
        },
        {
            "id": "400015",
            "opis": "Ulubiony_zespol",
            "temat": "Ulubiony_zespol",
            "wyjscia": [
                {"out":"Mimo, że najczęściej oglądam Premier League, moim ulubionym zespołem jest AC Milan. Ale kibicuje też Tottenhamowi Hotspur."}
            ] 
        },
        {
            "id": "400016",
            "opis": "Ostatni_obejrzany_mecz",
            "temat": "Ostatni_obejrzany_mecz",
            "wyjscia": [
                {"out":"El Classico. Real - Barca. Barcelona wygrała 4:0. Dobry mecz. Bardzo otwarty. Dużo sytuacji z obu stron."}
            ] 
        },
        {
            "id": "400017",
            "opis": "Ciekawostka_o_pilce",
            "temat": "Ciekawostka_o_pilce",
            "wyjscia": [
                {"out":"Od tego tu jestem. Gdybyś chciał poznać jakieś ciekawostki o piłce to po prostu zapytaj <img src='images/smile.jpg'>"}
            ] 
        },
		{
            "id": "400018",
            "opis": "Ulubiony_zespol",
            "temat": "Ulubiony_zespol",
            "wyjscia": [
                {"out":"A czy ja pytam cie dlaczego lubisz zupę pomidorową?  <img src='images/smile.jpg'> Coś się lubi a czegoś nie. Nie bądź taki dociekliwy."}
            ] 
        },
		{
            "id": "400019",
            "opis": "Ulubiona_liga",
            "temat": "Ulubiona_liga",
            "wyjscia": [
                {"out":"No jest po prostu najciekawsza."}
            ] 
        },
		{
            "id": "400020",
            "opis": "Ciekawostka_o_pilce",
            "temat": "Ciekawostka_o_pilce",
            "wyjscia": [
                {"out":"W grę o zbliżonych regułach grano w Chinach już 2 300 lat temu."},
				{"out":"Pilka nożna jest najpopularniejszym sportem na świecie. Kopać piłkę można zarówno na Saharze jak i na Antarktydzie."},
				{"out":"Sport ten uprawia ponad 280 milionów zawodniczek i zawodników, oraz 5 milionów sędziów."},
				{"out":"Największą imprezą piłkarską są Mistrzostwa Świata odbywające się co 4 lata od 1930 roku z wyjątkiem roku 1942 i 1946."},
				{"out":"Największym aktualnie stadionem na świecie jest Stadion im. 1 Maja w Pjongjangu ( Korea Północna). Oficjalna jego pojemność to 150 000 miejsc siedzących."},
				{"out":"Pierwsze doniesienia o grze można znaleźć w pismach pochodzących z około 476 r. p.n.e."},
				{"out":"Andrew Wats urodzony w Gujanie Brytyjskiej był pierwszym profesjonalnym czarnoskórym piłkarzem. Był gwiazda w epoce wiktoriańskiej w roku 1880"},
				{"out":"Najlepszym strzelcem w historii był Brazylijczyk Arthur który w latach 1920-1940 strzelił 1329 bramek."},
				{"out":"Najszybszą samobójczą bramkę strzelił Pat Kruse  z Torquay United (Liga angielska) w 1977 roku w 6 sekundzie."},
				{"out":"Eduardo Maglioni, piłkarz Independiente strzelił drużynie Gimnasia y Esgrima LP 3 bramki w czasie 1 minuty i 51 sekund, 18 marca1973 r"},
				{"out":"W lidze madagaskarskiej w 2002 roku w meczu AS Adema - Stade Olympique Emyrne padł rekordowy wynik 149:0. Przy każdej nadarzającej się okazji strzelali bramki samobójcze na znak protestu przeciw stronniczemu ich zdaniem sędziowaniu."},
				{"out":"Pele jest najmłodszym graczem, który wygrał Puchar Świata grając przeciwko Szwecji w 1958 roku. Miał wtedy 17 lat i 237 dni."},
				{"out":"Mauricio Baldivieso zadebiutować w pierwszej lidze boliwijskiej w wieku 12 lat."},
				{"out":"Neil Mc Bain z New Brigthon zagrał swój ostatni mecz mając 52 lata i 4 miesiące."},
				{"out":"W 1950 roku Indie zostały wycofane z Mistrzostw Świata, ponieważ wtedy nie wolno było grać boso."},
				{"out":"W 1999 roku w Bangkoku odbył się największy w historii turniej piłkarski, w którym wzięło udział 5 098 zespołów."},
				{"out":"Urugwajczyk Ricardo Oliver w 1998 roku strzelił najszybszą bramkę w historii piłki nożnej. Udało mu się pokonać bramkarza już w 2,8 sekundzie meczu."},
				{"out":"Stephan Staniow w 1942 roku grający w Racing Club de Lens w jednym meczu strzelił 16 bramek."},
				{"out":"Między Narodowa Federacja Piłki Nożnej (FIFA), ma siedzibę w Zurychu w Szwajcarii."},
				{"out":"Do 1913 roku bramkarze nie musieli mieć koszulek innego koloru."},
				{"out":"Diego Maradona zadebiutował w reprezentacji Argentyny w wieku 16 lat."},
				{"out":"Najstarszym klubem na świecie jest FC Sheffield założony przez dwóch brytyjskich oficerów w 1857 roku."},
				{"out":"Piłka nożna w obecnej formie wywodzi się z Wielkiej Brytanii."},
				{"out":"Najwięcej bo aż pięciokrotnie Mistrzostwo Świata zdobyła Brazylia."},
				{"out":"Największa frekwencja w historii była podczas meczu Mistrzostw Świata pomiędzy Brazylią a Urugwajem w 1950 roku. Na stadionie Maracana w Rio de Janeiro zasiadło 199 854 widzów."},
				{"out":"Piłka nożna jest najbardziej popularnym, najchętniej uprawianym i oglądanym sportem na świecie."},
				{"out":"W 1973 roku drużyna Galilea z izraelskiej ligi spędziła noc w więzieniu za kopanie podczas meczu zawodników drużyny przeciwnej."},
				{"out":"Ostatnie Mistrzostwa Świata oglądało przed telewizorami ponad miliard osób."},
				{"out":"Piłkarze podczas meczu przebiegają ponad 10 kilometrów. Wynik najlepszych to około 130 metrów na minutę."},
				{"out":"Crystiano Ronaldo jest piłkarzem, który z pośród znanych zawodników ma najmniejszą ilość tłuszczu w ciele, około 7% (mniej niż modelki)."},
				{"out":"Najmniejsza frekwencja podczas meczu Mistrzostw Świata odnotowana została w 1930 roku. Na jednym z meczy zasiadło jedynie 300 widzów."},
				{"out":"W ciągu całej historii Mistrzostw Świata, jedynie w 1930 i 1950 roku zabrakło w finale europejskiej drużyny."},
				{"out":"Pierwszy hat-trick w meczu Pucharu Świata zdobył Bert Patenaude Stanów Zjednoczonych w meczu z Paragwajem w Pucharze Świata 1930."},
				{"out":"Na MŚ w Brazylii w 2014 roku po raz pierwszy w historii wykorzystana została technologia goal-line. Na każdym boisku rozmieszczonych zostało 14 specjalnych kamer, które dokładnie pokazują, czy piłka przekroczyła linię, o czym na bieżąco informują sędziego."},
				{"out":"Od 2014 roku na całym świecie w każdym ważnym meczu sędziowie korzystają z pianki w sprayu do zaznaczania na murawie miejsca z którego wykonywane są rzuty wolne i linii, której nie mogą przekroczyć zawodnicy ustawieni w murze. Pianka znika po około 2 minutach."}
            ] 
        }
    ]
}