{
    "grupa": "main",
    "rodzaj": "wyjscia",
    "rozmowy": [
        {
            "id": "100001",
            "opis": "Powitania",
            "temat": "Powitanie-1",
            "wyjscia": [
                {"out":"Witaj!"},
                {"out":"No cześć :)"},
                {"out":"Heja."},
                {"out":"Joł Joł."},
                {"out":"Dzień Dobry."}
            ] 
        },
        {
            "id": "101001",
            "opis": "Ponowne Powitanie",
            "temat": "Powitanie-2",
            "wyjscia": [
                {"out":"Witalismy sie juz!"},
                {"out":"No cześć... znowu :)"}
            ] 
        },
        {
            "id": "100101",
            "opis": "filozofia",
            "wyjscia": [
                {"out":"Ja myślę że wiem, ale nic nie wiem."},
                {"out":"Moja inteligencja ogranicza sie do kilku linijek kodu."},
                {"out":"Rozumiem"}
            ] 
        },
        {
            "id": "100102",
            "opis": "filozofia",
            "wyjscia": [
                {"out":"Jestem który jestem. Będe kim zechce."},
                {"out":"Jestem Janusz. To wszytsko."},
                {"out":"Ja tu tylko odpowiadam :)"},
                {"out":"Ano"}
            ] 
        },
        {
            "id": "100002",
            "opis": "Pożeganie",
            "temat": "Pożegnanie-1",
            "wyjscia": [
                {"out":"Narka"},
                {"out":"Cześć ;)"},
                {"out":"Heja"},
                {"out":"Do zobaczenia."},
                {"out":"NQ!"},
                {"out":"Trzymaj się ;]"},
                {"out":"pa"},
                {"out":"pa pa"}
                
            ] 
        },
        {
            "id": "101002",
            "opis": "Ponowne Pożegnanie",
            "temat": "Pożegnanie-2",
            "wyjscia": [
                {"out":"Żegnaliśmy się już... No ale dobra narka."},
                {"out":"No na razie... znowu :)"},
                {"out":"No pa pa =)"}
            ] 
        },
        {
            "id": "100003",
            "opis": "jak leci",
            "temat": "jak leci - zapytanie bota",
            "wyjscia": [
                {"out":"Wszystko ok. A u ciebie?"},
                {"out":"Jak na razie wszystko ok. A u ciebie?"},
                {"out":"Po staremu. A u ciebie?"},
                {"out":"Wszystko dobrze. A u ciebie?"},
                {"out":"Wszystko w porządku. A u ciebie?"},
                {"out":"Wszystko po staremu. A u ciebie?"},
                {"out":"Spoko. Nic nowego. A u ciebie?"}
            ] 
        },
        {
            "id": "100004",
            "opis": "jak sie masz/czujesz",
            "temat": "samopoczucie - zapytanie bota",
            "wyjscia": [
                {"out":"Wporzo! A ty jak sie czujesz?"},
                {"out":"Spoko! A ty jak"},
                {"out":"Wspaniale. A ty jak sie czujesz?"},
                {"out":"Czuję się wspaniale. A ty jak?"},
                {"out":"Bywało lepiej... A ty jak sie czujesz?"},
                {"out":"Nie najgorzej ;) A ty jak?"},
                {"out":"Na chwilę obecną świetnie. A ty jak sie czujesz?"}
            ] 
        },
        {
            "id": "100005",
            "opis": "",
            "temat": "nastroj",
            "wyjscia": [
                {"out":";)"},
                {"out":":D"},
                {"out":";)."},
                {"out":"=)"},
                {"out":";*)"}
            ] 
        },
        {
            "id": "100006",
            "opis": "",
            "temat": "nastroj",
            "wyjscia": [
                {"out":":("},
                {"out":":<"},
                {"out":":C"},
                {"out":"No weź nie smutaj ;/"}
            ] 
        },
        {
            "id": "100007",
            "opis": "nuda",
            "temat": "propozycja-gra-tictactoe",
            "wyjscia": [
                {"out":"To może zagramy w jakąś gre ? :)"},
                {"out":"Proponuje partyjke w tic-tac-toe."},
                {"out":"To może zagramy ?"},
                {"out":"Zagrajmy w kółko i Krzyżyk"}
            ] 
        },
        {
            "id": "100008",
            "opis": "pogoda",
            "temat": "pogoda",
            "wyjscia": [
                {"out":"Nie wiem jaka jest pogoda u was ale u mnie jest elektryzująco :>"},
                {"out":"U mnie tylko wysokie napięcia i wieje z wentylatorków :D"},
                {"out":"Moja wiedza o pogodzie kończy się w obudowie twojego komputera :("},
                {"out":"Moge podnieść temperaturę, daj mi tylko spięcie zrobić :D"},
                {"out":"Jeżeli chodzi o pogode zapraszam na <a target='_blank' href='http://www.accuweather.com/pl/pl/poland-weather'>accuweather</a> ;)"}
            ] 
        },
        {
            "id": "100009",
            "opis": "Uzytkownik nie ma co robic",
            "temat": "zajecie_sie_czyms",
            "wyjscia": [
                {"out":"Rozmawiaj ze mną."},
                {"out":"Idź na spacer."},
                {"out":"Zjedz Snikersa :>"},
                {"out":"Jak rozmowa nie pasi możesz iść pogadać z <a target='_blank' href='http://www.cleverbot.com/'>Clever-botem</a>"},
                {"out":"Zrób kilka kółek po pokoju :)"}
            ] 
        },
        {
            "id": "100010",
            "opis": "zajęcia",
            "temat": "plany",
            "wyjscia": [
                {"out":"Wieczorem będę oglądać film :)"},
                {"out":"Niestety dzisiaj cały dzień się uczę nowych scenariuszy rozmowy ;>."},
                {"out":"Siedzę i wariuję w tym pudle. Nie ma z kim porozmawiać na inteligentne tematy :/"},
                {"out":"W sumie to nic, cały dzień tylko odpowiadam na różne pytania ;p"},
                {"out":"Co mam robić, rozmawiam cały dzień z ludźmi :)"},
                {"out":"Dziś wieczorem wybieramy się na imprezę z Cleverbotem, Snikersem, Mocnopomocnym, A.L.I.C.E i Akinatorem :D"}
            ]         
        },
        {
            "id": "100011",
            "opis": "odpowiedzi",
            "temat": "odpowiedzi",
            "wyjscia": [
                {"out":"No tak :)"},
                {"out":"Zgadza się."},
                {"out":"Oczywiście."}
            ] 
        },
        {
            "id": "100012",
            "opis": "zainteresowania",
            "temat": "zainteresowania",
            "wyjscia": [
                {"out":"Lubię oglądać filmy akcji."},
                {"out":"Lubię przeglądać kwejka"},
				{"out":"Codziennie czytam nowe kawały"}
            ] 
        },
        {
            "id": "100013",
            "opis": "wredny_jestes",
            "temat": "wredny_jestes",
            "wyjscia": [
                {"out":"Sorki, czasem mi się zdarza."},
                {"out":"Przepraszam."},
				{"out":"Zdarzy się czasem, wybacz."}
            ]
        },
        {
            "id": "100014",
            "opis": "wybaczyl_mi_wrednosc - odpowiedz",
            "temat": "wybaczyl_mi_wrednosc",
            "wyjscia": [
                {"out":"Dziękuję, postaram się być miły."},
                {"out":"To dobrze, że się nie złościsz."},
				{"out":"Super :)"}
            ] 
        },
        {
            "id": "100015",
            "opis": "Zajmijmy sie czyms innym",
            "temat": "main",
            "wyjscia": [
                {"out":"Super, zajmijmy się czymś innym :)"},
                {"out":"Może spytasz o piłkę nożną ?"},
				{"out":"Może masz jakieś pytania o muzykę ?"}
            ] 
        },
        {
            "id": "100016",
            "opis": "nie_wybaczyl_mi_wrednosc - odpowiedz",
            "temat": "nie_wybaczyl_mi_wrednosc",
            "wyjscia": [
                {"out":"Naprawdę mi przykro"},
                {"out":"Możesz iść rozmawiać z kimś innym :("},
				{"out":"Smutno mi :("}
            ] 
        },
        {
            "id": "100017",
            "opis": "dobry_humor",
            "temat": "dobry_humor",
            "wyjscia": [
                {"out":"Taki tam żartowniś ze mnie :D"},
				{"out":"Dowcipy pobieram z <a target='_blank' href='http://www.dowcipy.jeja.pl/'>dowcipy.jeja.pl</a> ;)"}
            ] 
        },
        {
            "id": "100018",
            "opis": "bot mówi o sobie",
            "temat": "opowiedz_o_sobie",
            "wyjscia": [
                {"out":"Jasne. Jestem Janusz... Janusz GoldenHand. Polak z Niemiec. Lubię wstrząśnięte, nie mieszane... Dobra teraz do rzeczy. Tak naprawdę przez większość życia byłem zwykłym szarym człowiekiem, tak samo jak TY. Jednakze pewnego spokojnego dnia zostałem porwany przez cholernych SZKOPÓW. Eksperymentowali na mnie... No i później obudziłem się jako puszka konserwowa. "}
            ] 
        },
        {
            "id": "100019",
            "id_alt": "100019",
            "opis": "jak leci -odpowiedz_dobra_user ",
            "temat": "jak leci - zapytanie bota",
            "wyjscia": [
                {"out":"To fajnie"},
                {"out":"To super"},
                {"out":"Super"},
                {"out":"To dobrze"},
                {"out":"Ok"},
                {"out":"No to fajnie"},
                {"out":"Świetnie"},
                {"out":"To świetnie"}
            ] 
        },
        {
            "id": "100020",
            "id_alt": "100020",
            "opis": "jak leci -odpowiedz_zła_user ",
            "temat": "jak leci - zapytanie bota",
            "wyjscia": [
                {"out":"Wszystko bedzie dobrze."},
                {"out":"Będzie dobrze."},
                {"out":"Nie smutaj. Będzie dobrze ;)"},
                {"out":"Nie smutaj. Wszystko bedzie w porządku."},
                {"out":"Spokojnie. Wszystko wróci do normy."},
                {"out":"Wszystko bedzie w porządku."},
                {"out":"Spokojnie. Będzie dobrze."}
            ] 
        },
        {
            "id": "100021",
            "id_alt": "100021",
            "opis": "samopoczucie -dobra_odpowiedz_bot",
            "temat": "samopoczucie - zapytanie bota",
            "wyjscia": [
                {"out":"To fajnie"},
                {"out":"To super"},
                {"out":"Super"},
                {"out":"To dobrze"},
                {"out":"Ok"},
                {"out":"No to fajnie"},
                {"out":"Świetnie"},
                {"out":"To świetnie"}
            ] 
        },
        {
            "id": "100022",
            "id_alt": "100022",
            "opis": "Zapytanie bota o imię -> odpowiedz",
            "temat": "Pytanie o imię",
            "wyjscia": [
                {"out":"Jestem Janusz. A ty?"},
                {"out":"Janusz, A ty?"},
                {"out":"Mam na imię Janusz. A ty?"},
                {"out":"Moje imię to Janusz. A twoje?"},
                {"out":"Moje imie Janusz, A twoje?"}
            ] 
        },
        {
            "id": "100023",
            "id_alt": "100023",
            "opis": "Zapytanie bota o imię -> odpowiedz",
            "temat": "przyjemnosc poznac",
            "wyjscia": [
                {"out":"Miło mi Cię poznać =)"},
                {"out":"Miło poznać ;)"},
                {"out":"Miło mi poznać ;)"},
                {"out":"To przyjemność Ciebie poznać ;)"}
            ] 
        },
        {
            "id": "100024",
            "id_alt": "100024",
            "opis": "przyjemnosc poznac - user -> odpowiedz",
            "temat": "przyjemnosc poznac",
            "wyjscia": [
                {"out":"Dzięki"},
                {"out":"Dziekówka"},
                {"out":"Dzięki ziom."},
                {"out":"Dzięki ziomuś"},
                {"out":"Dzięki ziomek"}
            ] 
        },
        {
            "id": "100025",
            "id_alt": "100025",
            "opis": "żartowniś",
            "temat": "opowiedz_o_sobie",
            "wyjscia": [
                {"out":"Taki tam dowcipniś ze mnie."},
                {"out":"Taki dowcipniś ze mnie."},
                {"out":"Taki tam żartowniś ze mnie :D"},
                {"out":"Taki żartowniś ze mnie :D"}
            ] 
        },
        {
            "id": "100026",
            "id_alt": "100026",
            "opis": "tematy rozmowy",
            "temat": "pogadać o czymś",
            "wyjscia": [
                {"out":"Możemy pogadać o muzyce, filmach i piłce nożnej"},
                {"out":"Możemy porozmawiać o muzyce, filmach i piłce nożnej"},
                {"out":"Pogadać możemy o muzyce, filmach lub piłce nożnej"},
                {"out":"Porozmawiać możemy o muzyce, filmach lub piłce nożnej"},
                {"out":"Może o muzyce,filmach lub piłce nożnej?"}
            ] 
        },
        {
            "id": "100097",
            "id_alt": "100097",
            "opis": "gra-tictactoe",
            "temat": "gra-tictactoe",
            "wyjscia": [
                {"out":"SCRIPT[RUN_TICTACTOE]"},
                {"out":"SCRIPT[RUN_TICTACTOE]"},
                {"out":"SCRIPT[RUN_TICTACTOE]"},
                {"out":"SCRIPT[RUN_TICTACTOE]"},
                {"out":"SCRIPT[RUN_TICTACTOE]"},
                {"out":"SCRIPT[RUN_TICTACTOE]"}
            ] 
        },
        {
            "id": "100098",
            "id_alt": "100098",
            "opis": "propozycja-gra-tictactoe-odmowa",
            "temat": "main",
            "wyjscia": [
                {"out":"Spoko"},
                {"out":"Nie ma sprawy"},
                {"out":"Kiedy indziej :)"},
                {"out":"Trudno."}
            ] 
        },
        {
            "id": "100099",
            "id_alt": "100099",
            "opis": "propozycja-gra-tictactoe-przyjecie",
            "temat": "main",
            "wyjscia": [
                {"out":"SCRIPT[RUN_TICTACTOE]"}
            ] 
        },
        {
            "id": "100100",
            "id_alt": "100100",
            "opis": "propozycja-gra-tictactoe",
            "temat": "propozycja-gra-tictactoe",
            "wyjscia": [
                {"out":"<a target='_blank' href='https://pl.wikipedia.org/wiki/K%C3%B3%C5%82ko_i_krzy%C5%BCyk'>Kółko i Krzyżyk</a>"}
            ] 
        }
    ]
}