{
	"grupa": "ball_league",
	"rodzaj": "wyjscia",
	"rozmowy": [		
		{
            "id": "400571",
            "opis": "Info_o_klubie",
			"temat": "Info_o_klubie",
            "wyjscia": [
                {"out":"Ekstraklasa składa się z 18 zespołów. W sezonie 2015/2016 występują w niej: Lech Poznań, Legia Warszawa, Cracovia Kraków, Lechia Gdańsk, Jagiellonia BIałystok, Ruch Chorzów, Śląsk Wrocław, Górnik Zabrze, Wisła Kraków, Zagłębie Lubin, Korona Kielce, Górnik Łęczna, Piast Gliwice, Pogoń Szczecin, Podbeskidzie Bielsko-Biała, Termalika Nieciecza."}
            ] 
        },
        {
            "id": "400572",
            "opis": "Info_o_klubie",
			"temat": "Info_o_klubie",
            "wyjscia": [
                {"out":"Premier League składa się z 20 zespołów. W sezonie 2015/2016 występują w niej: Liverpool, Arsenal Londyn, Chelsea Londyn, Manchester City, Manchester United, West Brom, Newcastle United, Leicester City, Watford, Tottenham Hotspur, West Ham, Southampton, Stoke City, Crystal Palace, Sunderland, Swansea, Norwich City, Everton, Aston Villa, Bournemouth."}
            ] 
        },
        {
            "id": "400573",
            "opis": "Info_o_klubie",
			"temat": "Info_o_klubie",
            "wyjscia": [
                {"out":"Serie A składa się z 20 zespołów. W sezonie 2015/2016 występują w niej: Juventus Turyn,  AC Milan, Fiorentina, Inter Mediolan, AS Roma, SSC Napoli, Sassuolo, Atalanta, Lazio Rzym, Sampdoria, Torino, Palermo, Empoli, Chievo Verona, Genoa, Bologna, Udinese Calcio, Frosinone, Hellas Verona, Carpi."}
            ] 
        },
        {
            "id": "400574",
            "opis": "Info_o_klubie",
			"temat": "Info_o_klubie",
            "wyjscia": [
                {"out":"Primera Division składa się z 20 zespołów. W sezonie 2015/2016 występują w niej: FC Barcelona, Real Madryt, Atletico Madryt, Valencia, Sevilla, Villarreal, Athletic Bilbao, Celta Vigo, Malaga, Espanyol, Rayo Vallecano, Real Sociedad, Levante, Getafe, Deportivo La Coruna, Granada, Eibar, Betis, Sporting Gijon, Las Palmas."}
            ] 
        },
        {
            "id": "400575",
            "opis": "Info_o_klubie",
			"temat": "Info_o_klubie",
            "wyjscia": [
                {"out":"Bundesliga składa się z 18 zespołów. W sezonie 2015/2016 występują w niej: Bayern Monachium, Borussia Dortmund, Schalke 04, Wolfsburg, Borussia Monchengladbach, Bayer Leverkusen, Augsburg, Hoffenheim, Frankfurt, Werder Brema, Mainz,  Koeln, Hannover 96, VfB Stuttgart, Hertha, HSV, Ingolstadt, Darmstadt."}
            ] 
        },
        {
            "id": "400576",
            "opis": "Info_o_klubie",
			"temat": "Info_o_klubie",
            "wyjscia": [
                {"out":"Ligue 1 składa się z 20 zespołów. W sezonie 2015/2016 występują w niej: Paris Saint-Germain, Olympique Lyon, AS Monaco, Olympique Marsylia, Saint-Etienne, Girondins Bordeaux, Montpellier, OSC Lille, Rennes, Guingamp, Nice, Bastia, Caen, Nantes, Stade Reims, Lorient, Toulouse, Troyes, Angers, GFC Ajaccio."}
            ] 
        },
		{
            "id": "400577",
            "opis": "Info_o_klubie",
			"temat": "Info_o_klubie",
            "wyjscia": [
                {"out":"W najwyższej klasie rozgrywkowej w Polsce czyli Ekstraklasie."}
            ] 
        },
        {
            "id": "400578",
            "opis": "Info_o_klubie",
			"temat": "Info_o_klubie",
            "wyjscia": [
                {"out":"W polskiej 1.lidze czyli na drugim szczeblu rozgrywkowym."}
            ] 
        },
        {
            "id": "400579",
            "opis": "Info_o_klubie",
			"temat": "Info_o_klubie",
            "wyjscia": [
                {"out":"Obecnie w angielskiej Barclays Premier League, najwyższej klasie rozgrywkowej na wyspach."}
            ] 
        },
        {
            "id": "400580",
            "opis": "Info_o_klubie",
			"temat": "Info_o_klubie",
            "wyjscia": [
                {"out":"Po spadku w ostatnim sezonie z Premier League rozgrywa swoje spotkania w Championship, angielskiej drugiej lidze."}
            ] 
        },
        {
            "id": "400581",
            "opis": "Info_o_klubie",
			"temat": "Info_o_klubie",
            "wyjscia": [
                {"out":"Obecnie w Serie A - w najwyższej klasie rozgrywkowej we Włoszech."}
            ] 
        },
        {
            "id": "400582",
            "opis": "Info_o_klubie",
			"temat": "Info_o_klubie",
            "wyjscia": [
                {"out":"Po spadku w ostatnim sezonie z Serie A obecnie rozgrywa swoje mecze we włoskiej drugiej lidze - Serie B."}
            ] 
        },
        {
            "id": "400583",
            "opis": "Info_o_klubie",
			"temat": "Info_o_klubie",
            "wyjscia": [
                {"out":"Obecnie w najlepszej europejskiej lidze czyli Primera Division - w najwyższej klasie rozgrywkowej w Hiszpani."}
            ] 
        },
        {
            "id": "400584",
            "opis": "Info_o_klubie",
			"temat": "Info_o_klubie",
            "wyjscia": [
                {"out":"Po spadku w ostatnim sezonie z Primera Divison obecnie rozgrywa swoje mecze w hiszpańskiej drugiej lidze - Segunda Divison."}
            ] 
        },
        {
            "id": "400585",
            "opis": "Info_o_klubie",
			"temat": "Info_o_klubie",
            "wyjscia": [
                {"out":"Obecnie w najwyższej klasie rozgrywkowej w Niemczech czyli Bundeslidze."}
            ] 
        },
        {
            "id": "400586",
            "opis": "Info_o_klubie",
			"temat": "Info_o_klubie",
            "wyjscia": [
                {"out":"Po spadku z Bundesligi obecnie rozgrywa swoje mecze na zapleczu niemieckiej ekstraklasy czyli w 2. Bundeslidze."}
            ] 
        },
        {
            "id": "400587",
            "opis": "Info_o_klubie",
			"temat": "Info_o_klubie",
            "wyjscia": [
                {"out":"We francuskiej pierwszej lidze - Ligue 1."}
            ] 
        },
        {
            "id": "400588",
            "opis": "Info_o_klubie",
			"temat": "Info_o_klubie",
            "wyjscia": [
                {"out":"We francuskiej drugiej lidze - Ligue 2."}
            ] 
        },
        {
            "id": "400589",
            "opis": "Info_o_klubie",
			"temat": "Info_o_klubie",
            "wyjscia": [
                {"out":"W cypryjskiej 1 lidze."}
            ] 
        },
        {
            "id": "400590",
            "opis": "Info_o_klubie",
			"temat": "Info_o_klubie",
            "wyjscia": [
                {"out":"W szkodzkiej Premiership."}
            ] 
        },
        {
            "id": "400591",
            "opis": "Info_o_klubie",
			"temat": "Info_o_klubie",
            "wyjscia": [
                {"out":"W austriackiej Tipico Bundeslidze."}
            ] 
        },
        {
            "id": "400592",
            "opis": "Info_o_klubie",
			"temat": "Info_o_klubie",
            "wyjscia": [
                {"out":"W greckiej Super League."}
            ] 
        },
        {
            "id": "400593",
            "opis": "Info_o_klubie",
			"temat": "Info_o_klubie",
            "wyjscia": [
                {"out":"W szwajcarskiej Super League."}
            ] 
        },
        {
            "id": "400594",
            "opis": "Info_o_klubie",
			"temat": "Info_o_klubie",
            "wyjscia": [
                {"out":"W rosyjskiej Premier Ligdze."}
            ] 
        },
        {
            "id": "400595",
            "opis": "Info_o_klubie",
			"temat": "Info_o_klubie",
            "wyjscia": [
                {"out":"W portugalskiej Primeira Liga."}
            ] 
        },
        {
            "id": "400596",
            "opis": "Info_o_klubie",
			"temat": "Info_o_klubie",
            "wyjscia": [
                {"out":"W holenderskiej Eredivisie."}
            ] 
        },
        {
            "id": "400597",
            "opis": "Info_o_klubie",
			"temat": "Info_o_klubie",
            "wyjscia": [
                {"out":"W belgijskiej Jupiler League."}
            ] 
        },
        {
            "id": "400598",
            "opis": "Info_o_klubie",
			"temat": "Info_o_klubie",
            "wyjscia": [
                {"out":"W ukraińskiej Pari-Match League."}
            ] 
        },
        {
            "id": "400599",
            "opis": "Info_o_klubie",
			"temat": "Info_o_klubie",
            "wyjscia": [
                {"out":"W tureckiej Super Lig."}
            ] 
        },
        {
            "id": "400600",
            "opis": "Info_o_klubie",
			"temat": "Info_o_klubie",
            "wyjscia": [
                {"out":"W Vysshaya Liga czyli 1. lidze białoruskiej."}
            ] 
        }
	]
}